<?xml version="1.0" standalone="no"?>
<!DOCTYPE svg PUBLIC "-//W3C//DTD SVG 1.1//EN" 
"http://www.w3.org/Graphics/SVG/1.1/DTD/svg11.dtd"> 
<svg
  xmlns="http://www.w3.org/2000/svg"
  version="1.1"
  width="11.7in" height="8.267in" viewBox="0 0 117000 82670 "
>
  <title>SVG Picture created as i_allband_receiver_12v_build-Back.svg </title>
  <desc>Picture generated by wxSVG v0101 </desc>
  <g style="fill:black; stroke:black; stroke-width:1">
</g>
<g style="fill:#FFFFFF; fill-opacity:1.0; 
  stroke:#000000; stroke-linecap:round; stroke-linejoin:round; stroke-opacity:1.0; stroke-opacity:1.0; stroke-width:0" 
   transform="translate(0 0) scale(1 1)">
<path d="M39998 15500 L40002 15500" /> 
<path d="M40000 15498 L40000 15502" /> 
</g>
<g style="fill:#000000; fill-opacity:0.0; 
  stroke:#000000; stroke-linecap:round; stroke-linejoin:round; stroke-opacity:1.0; stroke-opacity:1.0; stroke-width:120" 
   transform="translate(0 0) scale(1 1)">
<path d="M39790 14114 L40324 14257" /> 
<path d="M40324 14257 L39790 14399" /> 
<g style = "stroke-linecap:round;" > 
<path d="M39790 14399 L39790 14399" /> 
</g><path d="M40324 14714 L40286 14656" /> 
<path d="M40286 14656 L40248 14628" /> 
<path d="M40248 14628 L40171 14599" /> 
<path d="M40171 14599 L39943 14599" /> 
<path d="M39943 14599 L39867 14628" /> 
<path d="M39867 14628 L39829 14656" /> 
<path d="M39829 14656 L39790 14714" /> 
<path d="M39790 14714 L39790 14799" /> 
<path d="M39790 14799 L39829 14856" /> 
<path d="M39829 14856 L39867 14885" /> 
<path d="M39867 14885 L39943 14914" /> 
<path d="M39943 14914 L40171 14914" /> 
<path d="M40171 14914 L40248 14885" /> 
<path d="M40248 14885 L40286 14856" /> 
<path d="M40286 14856 L40324 14799" /> 
<path d="M40324 14799 L40324 14714" /> 
<path d="M40324 15171 L39790 15171" /> 
<g style = "stroke-linecap:round;" > 
<path d="M39790 15171 L39790 15171" /> 
</g><path d="M39524 15171 L39562 15142" /> 
<path d="M39562 15142 L39600 15171" /> 
<path d="M39600 15171 L39562 15199" /> 
<path d="M39562 15199 L39524 15171" /> 
<path d="M39524 15171 L39600 15171" /> 
<g style = "stroke-linecap:round;" > 
<path d="M39600 15171 L39600 15171" /> 
</g><path d="M40324 15714 L39524 15714" /> 
<g style = "stroke-linecap:round;" > 
<path d="M39524 15714 L39524 15714" /> 
</g><path d="M40286 15714 L40324 15657" /> 
<path d="M40324 15657 L40324 15543" /> 
<path d="M40324 15543 L40286 15485" /> 
<path d="M40286 15485 L40248 15457" /> 
<path d="M40248 15457 L40171 15428" /> 
<path d="M40171 15428 L39943 15428" /> 
<path d="M39943 15428 L39867 15457" /> 
<path d="M39867 15457 L39829 15485" /> 
<path d="M39829 15485 L39790 15543" /> 
<path d="M39790 15543 L39790 15657" /> 
<path d="M39790 15657 L39829 15714" /> 
<g style = "stroke-linecap:round;" > 
<path d="M39829 15714 L39829 15714" /> 
</g><path d="M40248 16000 L40286 16028" /> 
<path d="M40286 16028 L40324 16000" /> 
<path d="M40324 16000 L40286 15971" /> 
<path d="M40286 15971 L40248 16000" /> 
<path d="M40248 16000 L40324 16000" /> 
<g style = "stroke-linecap:round;" > 
<path d="M40324 16000 L40324 16000" /> 
</g><path d="M40324 16286 L39790 16286" /> 
<g style = "stroke-linecap:round;" > 
<path d="M39790 16286 L39790 16286" /> 
</g><path d="M39524 16286 L39562 16257" /> 
<path d="M39562 16257 L39600 16286" /> 
<path d="M39600 16286 L39562 16314" /> 
<path d="M39562 16314 L39524 16286" /> 
<path d="M39524 16286 L39600 16286" /> 
<g style = "stroke-linecap:round;" > 
<path d="M39600 16286 L39600 16286" /> 
</g><path d="M40324 16658 L40286 16600" /> 
<path d="M40286 16600 L40248 16572" /> 
<path d="M40248 16572 L40171 16543" /> 
<path d="M40171 16543 L39943 16543" /> 
<path d="M39943 16543 L39867 16572" /> 
<path d="M39867 16572 L39829 16600" /> 
<path d="M39829 16600 L39790 16658" /> 
<path d="M39790 16658 L39790 16743" /> 
<path d="M39790 16743 L39829 16800" /> 
<path d="M39829 16800 L39867 16829" /> 
<path d="M39867 16829 L39943 16858" /> 
<path d="M39943 16858 L40171 16858" /> 
<path d="M40171 16858 L40248 16829" /> 
<path d="M40248 16829 L40286 16800" /> 
<path d="M40286 16800 L40324 16743" /> 
<path d="M40324 16743 L40324 16658" /> 
</g>
<g style="fill:#000000; fill-opacity:0.0; 
  stroke:#000000; stroke-linecap:round; stroke-linejoin:round; stroke-opacity:1.0; stroke-opacity:1.0; stroke-width:0" 
   transform="translate(0 0) scale(1 1)">
<path d="M39998 22500 L40002 22500" /> 
<path d="M40000 22498 L40000 22502" /> 
</g>
<g style="fill:#000000; fill-opacity:0.0; 
  stroke:#000000; stroke-linecap:round; stroke-linejoin:round; stroke-opacity:1.0; stroke-opacity:1.0; stroke-width:120" 
   transform="translate(0 0) scale(1 1)">
<path d="M40324 21329 L39524 21329" /> 
<g style = "stroke-linecap:round;" > 
<path d="M39524 21329 L39524 21329" /> 
</g><path d="M39790 22015 L40324 22158" /> 
<path d="M40324 22158 L39790 22300" /> 
<g style = "stroke-linecap:round;" > 
<path d="M39790 22300 L39790 22300" /> 
</g><path d="M40324 22843 L40324 22500" /> 
<g style = "stroke-linecap:round;" > 
<path d="M40324 22500 L40324 22500" /> 
</g><path d="M40324 22672 L39524 22672" /> 
<path d="M39524 22672 L39638 22615" /> 
<path d="M39638 22615 L39714 22557" /> 
<path d="M39714 22557 L39752 22500" /> 
<g style = "stroke-linecap:round;" > 
<path d="M39752 22500 L39752 22500" /> 
</g><path d="M40248 23100 L40286 23128" /> 
<path d="M40286 23128 L40324 23100" /> 
<path d="M40324 23100 L40286 23071" /> 
<path d="M40286 23071 L40248 23100" /> 
<path d="M40248 23100 L40324 23100" /> 
<g style = "stroke-linecap:round;" > 
<path d="M40324 23100 L40324 23100" /> 
</g><path d="M39524 23500 L39524 23557" /> 
<path d="M39524 23557 L39562 23614" /> 
<path d="M39562 23614 L39600 23643" /> 
<path d="M39600 23643 L39676 23672" /> 
<path d="M39676 23672 L39829 23700" /> 
<path d="M39829 23700 L40019 23700" /> 
<path d="M40019 23700 L40171 23672" /> 
<path d="M40171 23672 L40248 23643" /> 
<path d="M40248 23643 L40286 23614" /> 
<path d="M40286 23614 L40324 23557" /> 
<path d="M40324 23557 L40324 23500" /> 
<path d="M40324 23500 L40286 23443" /> 
<path d="M40286 23443 L40248 23414" /> 
<path d="M40248 23414 L40171 23386" /> 
<path d="M40171 23386 L40019 23357" /> 
<path d="M40019 23357 L39829 23357" /> 
<path d="M39829 23357 L39676 23386" /> 
<path d="M39676 23386 L39600 23414" /> 
<path d="M39600 23414 L39562 23443" /> 
<path d="M39562 23443 L39524 23500" /> 
</g>
<g style="fill:#000000; fill-opacity:0.0; 
  stroke:#000000; stroke-linecap:round; stroke-linejoin:round; stroke-opacity:1.0; stroke-opacity:1.0; stroke-width:150" 
   transform="translate(0 0) scale(1 1)">
<path d="M23500 25000 L23500 7000" /> 
<path d="M41000 25000 L23500 25000" /> 
<path d="M41000 7000 L41000 25000" /> 
<path d="M23500 7000 L41000 7000" /> 
</g>
<g style="fill:#000000; fill-opacity:0.0; 
  stroke:#000000; stroke-linecap:round; stroke-linejoin:round; stroke-opacity:1.0; stroke-opacity:1.0; stroke-width:394" 
   transform="translate(0 0) scale(1 1)">
<path d="M38500 9500 L38000 9000" /> 
<path d="M38500 10500 L38500 9500" /> 
<path d="M34000 9500 L34000 10500" /> 
<path d="M34500 9000 L34000 9500" /> 
<path d="M38000 9000 L34500 9000" /> 
<path d="M25500 19500 L25000 19500" /> 
<path d="M33000 15000 L33000 17000" /> 
<path d="M24500 23500 L25000 24000" /> 
<path d="M25000 24000 L32000 24000" /> 
<path d="M25500 19500 L25500 22500" /> 
<path d="M25000 19500 L24500 20000" /> 
<path d="M33000 17000 L34000 17000" /> 
<path d="M32000 24000 L34000 24000" /> 
<path d="M34000 24000 L34000 18000" /> 
<path d="M34000 17000 L34000 18000" /> 
<path d="M24500 20000 L24500 23500" /> 
<path d="M31000 22500 L33000 22500" /> 
<path d="M38500 8000 L34500 8000" /> 
<path d="M32000 10500 L32000 10000" /> 
<path d="M25500 10000 L25500 10500" /> 
<path d="M32000 10500 L34500 8000" /> 
<path d="M32000 13000 L32000 15000" /> 
<path d="M32000 10000 L32000 9500" /> 
<path d="M32000 10500 L32000 13000" /> 
<path d="M40000 9500 L38500 8000" /> 
<path d="M26500 9000 L25500 10000" /> 
<path d="M37000 15000 L37000 17000" /> 
<path d="M32000 9500 L31500 9000" /> 
<path d="M38500 17500 L38500 22000" /> 
<path d="M32000 18500 L32000 17000" /> 
<path d="M38000 22500 L37000 22500" /> 
<path d="M40000 12000 L40000 9500" /> 
<path d="M32000 15000 L32000 17000" /> 
<path d="M31500 19000 L32000 18500" /> 
<path d="M37000 17000 L38000 17000" /> 
<path d="M30500 19000 L31500 19000" /> 
<path d="M38000 17000 L38500 17500" /> 
<path d="M38500 13500 L40000 12000" /> 
<path d="M38500 13500 L37000 15000" /> 
<path d="M31500 9000 L26500 9000" /> 
<path d="M38500 22000 L38000 22500" /> 
<path d="M35000 20000 L36000 19000" /> 
<path d="M36000 19000 L37000 19000" /> 
<path d="M35000 22500 L35000 20000" /> 
<path d="M36500 11500 L35000 13000" /> 
<path d="M36500 10500 L36500 11500" /> 
<path d="M35000 13000 L34000 13000" /> 
<path d="M34000 13000 L33000 13000" /> 
<path d="M34000 13000 L34000 15000" /> 
<path d="M27000 16500 L28500 16500" /> 
<path d="M27000 16500 L25500 16500" /> 
<path d="M27000 13500 L25500 13500" /> 
<path d="M28500 13500 L27000 13500" /> 
<path d="M29500 20000 L30000 20500" /> 
<path d="M30000 20500 L30000 22500" /> 
<path d="M28500 22500 L30000 22500" /> 
<path d="M27000 21000 L28500 22500" /> 
<path d="M29500 16500 L29500 19000" /> 
<path d="M27000 18000 L28000 18000" /> 
<path d="M29000 19000 L29500 19000" /> 
<path d="M28000 18000 L29000 19000" /> 
<path d="M29500 10500 L29500 13500" /> 
</g>
<g style="fill:#000000; fill-opacity:1.0; 
  stroke:#000000; stroke-linecap:round; stroke-linejoin:round; stroke-opacity:1.0; stroke-opacity:1.0; stroke-width:0" 
   transform="translate(0 0) scale(1 1)">
<ellipse cx="34000" cy="15000" rx="350" ry="350"  /> 
</g>
<g style="fill:#FFFFFF; fill-opacity:1.0; 
  stroke:#808000; stroke-linecap:round; stroke-linejoin:round; stroke-opacity:1.0; stroke-opacity:1.0; stroke-width:0" 
   transform="translate(0 0) scale(1 1)">
<ellipse cx="34000" cy="15000" rx="200" ry="200"  /> 
</g>
<g style="fill:#000000; fill-opacity:1.0; 
  stroke:#000000; stroke-linecap:round; stroke-linejoin:round; stroke-opacity:1.0; stroke-opacity:1.0; stroke-width:0" 
   transform="translate(0 0) scale(1 1)">
<ellipse cx="33000" cy="15000" rx="350" ry="350"  /> 
</g>
<g style="fill:#FFFFFF; fill-opacity:1.0; 
  stroke:#808000; stroke-linecap:round; stroke-linejoin:round; stroke-opacity:1.0; stroke-opacity:1.0; stroke-width:0" 
   transform="translate(0 0) scale(1 1)">
<ellipse cx="33000" cy="15000" rx="200" ry="200"  /> 
</g>
<g style="fill:#000000; fill-opacity:1.0; 
  stroke:#000000; stroke-linecap:round; stroke-linejoin:round; stroke-opacity:1.0; stroke-opacity:1.0; stroke-width:0" 
   transform="translate(0 0) scale(1 1)">
<polygon style="fill-rule:evenodd; " 
points="31650,14650
32350,14650
32350,15350
31650,15350
" /> 
</g>
<g style="fill:#FFFFFF; fill-opacity:1.0; 
  stroke:#808000; stroke-linecap:round; stroke-linejoin:round; stroke-opacity:1.0; stroke-opacity:1.0; stroke-width:0" 
   transform="translate(0 0) scale(1 1)">
<ellipse cx="32000" cy="15000" rx="200" ry="200"  /> 
</g>
<g style="fill:#000000; fill-opacity:1.0; 
  stroke:#000000; stroke-linecap:round; stroke-linejoin:round; stroke-opacity:1.0; stroke-opacity:1.0; stroke-width:0" 
   transform="translate(0 0) scale(1 1)">
<ellipse cx="25500" cy="22500" rx="275" ry="275"  /> 
</g>
<g style="fill:#FFFFFF; fill-opacity:1.0; 
  stroke:#808000; stroke-linecap:round; stroke-linejoin:round; stroke-opacity:1.0; stroke-opacity:1.0; stroke-width:0" 
   transform="translate(0 0) scale(1 1)">
<ellipse cx="25500" cy="22500" rx="160" ry="160"  /> 
</g>
<g style="fill:#000000; fill-opacity:1.0; 
  stroke:#000000; stroke-linecap:round; stroke-linejoin:round; stroke-opacity:1.0; stroke-opacity:1.0; stroke-width:0" 
   transform="translate(0 0) scale(1 1)">
<ellipse cx="28500" cy="22500" rx="275" ry="275"  /> 
</g>
<g style="fill:#FFFFFF; fill-opacity:1.0; 
  stroke:#808000; stroke-linecap:round; stroke-linejoin:round; stroke-opacity:1.0; stroke-opacity:1.0; stroke-width:0" 
   transform="translate(0 0) scale(1 1)">
<ellipse cx="28500" cy="22500" rx="160" ry="160"  /> 
</g>
<g style="fill:#000000; fill-opacity:1.0; 
  stroke:#000000; stroke-linecap:round; stroke-linejoin:round; stroke-opacity:1.0; stroke-opacity:1.0; stroke-width:0" 
   transform="translate(0 0) scale(1 1)">
<ellipse cx="25500" cy="13500" rx="275" ry="275"  /> 
</g>
<g style="fill:#FFFFFF; fill-opacity:1.0; 
  stroke:#808000; stroke-linecap:round; stroke-linejoin:round; stroke-opacity:1.0; stroke-opacity:1.0; stroke-width:0" 
   transform="translate(0 0) scale(1 1)">
<ellipse cx="25500" cy="13500" rx="160" ry="160"  /> 
</g>
<g style="fill:#000000; fill-opacity:1.0; 
  stroke:#000000; stroke-linecap:round; stroke-linejoin:round; stroke-opacity:1.0; stroke-opacity:1.0; stroke-width:0" 
   transform="translate(0 0) scale(1 1)">
<ellipse cx="25500" cy="10500" rx="275" ry="275"  /> 
</g>
<g style="fill:#FFFFFF; fill-opacity:1.0; 
  stroke:#808000; stroke-linecap:round; stroke-linejoin:round; stroke-opacity:1.0; stroke-opacity:1.0; stroke-width:0" 
   transform="translate(0 0) scale(1 1)">
<ellipse cx="25500" cy="10500" rx="160" ry="160"  /> 
</g>
<g style="fill:#000000; fill-opacity:1.0; 
  stroke:#000000; stroke-linecap:round; stroke-linejoin:round; stroke-opacity:1.0; stroke-opacity:1.0; stroke-width:0" 
   transform="translate(0 0) scale(1 1)">
<ellipse cx="25500" cy="19500" rx="275" ry="275"  /> 
</g>
<g style="fill:#FFFFFF; fill-opacity:1.0; 
  stroke:#808000; stroke-linecap:round; stroke-linejoin:round; stroke-opacity:1.0; stroke-opacity:1.0; stroke-width:0" 
   transform="translate(0 0) scale(1 1)">
<ellipse cx="25500" cy="19500" rx="160" ry="160"  /> 
</g>
<g style="fill:#000000; fill-opacity:1.0; 
  stroke:#000000; stroke-linecap:round; stroke-linejoin:round; stroke-opacity:1.0; stroke-opacity:1.0; stroke-width:0" 
   transform="translate(0 0) scale(1 1)">
<ellipse cx="25500" cy="16500" rx="275" ry="275"  /> 
</g>
<g style="fill:#FFFFFF; fill-opacity:1.0; 
  stroke:#808000; stroke-linecap:round; stroke-linejoin:round; stroke-opacity:1.0; stroke-opacity:1.0; stroke-width:0" 
   transform="translate(0 0) scale(1 1)">
<ellipse cx="25500" cy="16500" rx="160" ry="160"  /> 
</g>
<g style="fill:#000000; fill-opacity:1.0; 
  stroke:#000000; stroke-linecap:round; stroke-linejoin:round; stroke-opacity:1.0; stroke-opacity:1.0; stroke-width:0" 
   transform="translate(0 0) scale(1 1)">
<ellipse cx="27000" cy="18000" rx="275" ry="275"  /> 
</g>
<g style="fill:#FFFFFF; fill-opacity:1.0; 
  stroke:#808000; stroke-linecap:round; stroke-linejoin:round; stroke-opacity:1.0; stroke-opacity:1.0; stroke-width:0" 
   transform="translate(0 0) scale(1 1)">
<ellipse cx="27000" cy="18000" rx="160" ry="160"  /> 
</g>
<g style="fill:#000000; fill-opacity:1.0; 
  stroke:#000000; stroke-linecap:round; stroke-linejoin:round; stroke-opacity:1.0; stroke-opacity:1.0; stroke-width:0" 
   transform="translate(0 0) scale(1 1)">
<ellipse cx="27000" cy="21000" rx="275" ry="275"  /> 
</g>
<g style="fill:#FFFFFF; fill-opacity:1.0; 
  stroke:#808000; stroke-linecap:round; stroke-linejoin:round; stroke-opacity:1.0; stroke-opacity:1.0; stroke-width:0" 
   transform="translate(0 0) scale(1 1)">
<ellipse cx="27000" cy="21000" rx="160" ry="160"  /> 
</g>
<g style="fill:#000000; fill-opacity:1.0; 
  stroke:#000000; stroke-linecap:round; stroke-linejoin:round; stroke-opacity:1.0; stroke-opacity:1.0; stroke-width:0" 
   transform="translate(0 0) scale(1 1)">
<polygon style="fill-rule:evenodd; " 
points="27275,13775
26725,13775
26725,13225
27275,13225
" /> 
</g>
<g style="fill:#FFFFFF; fill-opacity:1.0; 
  stroke:#808000; stroke-linecap:round; stroke-linejoin:round; stroke-opacity:1.0; stroke-opacity:1.0; stroke-width:0" 
   transform="translate(0 0) scale(1 1)">
<ellipse cx="27000" cy="13500" rx="160" ry="160"  /> 
</g>
<g style="fill:#000000; fill-opacity:1.0; 
  stroke:#000000; stroke-linecap:round; stroke-linejoin:round; stroke-opacity:1.0; stroke-opacity:1.0; stroke-width:0" 
   transform="translate(0 0) scale(1 1)">
<ellipse cx="27000" cy="16500" rx="275" ry="275"  /> 
</g>
<g style="fill:#FFFFFF; fill-opacity:1.0; 
  stroke:#808000; stroke-linecap:round; stroke-linejoin:round; stroke-opacity:1.0; stroke-opacity:1.0; stroke-width:0" 
   transform="translate(0 0) scale(1 1)">
<ellipse cx="27000" cy="16500" rx="160" ry="160"  /> 
</g>
<g style="fill:#000000; fill-opacity:1.0; 
  stroke:#000000; stroke-linecap:round; stroke-linejoin:round; stroke-opacity:1.0; stroke-opacity:1.0; stroke-width:0" 
   transform="translate(0 0) scale(1 1)">
<ellipse cx="33000" cy="13000" rx="275" ry="275"  /> 
</g>
<g style="fill:#FFFFFF; fill-opacity:1.0; 
  stroke:#808000; stroke-linecap:round; stroke-linejoin:round; stroke-opacity:1.0; stroke-opacity:1.0; stroke-width:0" 
   transform="translate(0 0) scale(1 1)">
<ellipse cx="33000" cy="13000" rx="160" ry="160"  /> 
</g>
<g style="fill:#000000; fill-opacity:1.0; 
  stroke:#000000; stroke-linecap:round; stroke-linejoin:round; stroke-opacity:1.0; stroke-opacity:1.0; stroke-width:0" 
   transform="translate(0 0) scale(1 1)">
<ellipse cx="32000" cy="13000" rx="275" ry="275"  /> 
</g>
<g style="fill:#FFFFFF; fill-opacity:1.0; 
  stroke:#808000; stroke-linecap:round; stroke-linejoin:round; stroke-opacity:1.0; stroke-opacity:1.0; stroke-width:0" 
   transform="translate(0 0) scale(1 1)">
<ellipse cx="32000" cy="13000" rx="160" ry="160"  /> 
</g>
<g style="fill:#000000; fill-opacity:1.0; 
  stroke:#000000; stroke-linecap:round; stroke-linejoin:round; stroke-opacity:1.0; stroke-opacity:1.0; stroke-width:0" 
   transform="translate(0 0) scale(1 1)">
<ellipse cx="33000" cy="17000" rx="275" ry="275"  /> 
</g>
<g style="fill:#FFFFFF; fill-opacity:1.0; 
  stroke:#808000; stroke-linecap:round; stroke-linejoin:round; stroke-opacity:1.0; stroke-opacity:1.0; stroke-width:0" 
   transform="translate(0 0) scale(1 1)">
<ellipse cx="33000" cy="17000" rx="160" ry="160"  /> 
</g>
<g style="fill:#000000; fill-opacity:1.0; 
  stroke:#000000; stroke-linecap:round; stroke-linejoin:round; stroke-opacity:1.0; stroke-opacity:1.0; stroke-width:0" 
   transform="translate(0 0) scale(1 1)">
<ellipse cx="32000" cy="17000" rx="275" ry="275"  /> 
</g>
<g style="fill:#FFFFFF; fill-opacity:1.0; 
  stroke:#808000; stroke-linecap:round; stroke-linejoin:round; stroke-opacity:1.0; stroke-opacity:1.0; stroke-width:0" 
   transform="translate(0 0) scale(1 1)">
<ellipse cx="32000" cy="17000" rx="160" ry="160"  /> 
</g>
<g style="fill:#000000; fill-opacity:1.0; 
  stroke:#000000; stroke-linecap:round; stroke-linejoin:round; stroke-opacity:1.0; stroke-opacity:1.0; stroke-width:0" 
   transform="translate(0 0) scale(1 1)">
<ellipse cx="29500" cy="13500" rx="275" ry="275"  /> 
</g>
<g style="fill:#FFFFFF; fill-opacity:1.0; 
  stroke:#808000; stroke-linecap:round; stroke-linejoin:round; stroke-opacity:1.0; stroke-opacity:1.0; stroke-width:0" 
   transform="translate(0 0) scale(1 1)">
<ellipse cx="29500" cy="13500" rx="160" ry="160"  /> 
</g>
<g style="fill:#000000; fill-opacity:1.0; 
  stroke:#000000; stroke-linecap:round; stroke-linejoin:round; stroke-opacity:1.0; stroke-opacity:1.0; stroke-width:0" 
   transform="translate(0 0) scale(1 1)">
<ellipse cx="28500" cy="13500" rx="275" ry="275"  /> 
</g>
<g style="fill:#FFFFFF; fill-opacity:1.0; 
  stroke:#808000; stroke-linecap:round; stroke-linejoin:round; stroke-opacity:1.0; stroke-opacity:1.0; stroke-width:0" 
   transform="translate(0 0) scale(1 1)">
<ellipse cx="28500" cy="13500" rx="160" ry="160"  /> 
</g>
<g style="fill:#000000; fill-opacity:1.0; 
  stroke:#000000; stroke-linecap:round; stroke-linejoin:round; stroke-opacity:1.0; stroke-opacity:1.0; stroke-width:0" 
   transform="translate(0 0) scale(1 1)">
<ellipse cx="28500" cy="16500" rx="275" ry="275"  /> 
</g>
<g style="fill:#FFFFFF; fill-opacity:1.0; 
  stroke:#808000; stroke-linecap:round; stroke-linejoin:round; stroke-opacity:1.0; stroke-opacity:1.0; stroke-width:0" 
   transform="translate(0 0) scale(1 1)">
<ellipse cx="28500" cy="16500" rx="160" ry="160"  /> 
</g>
<g style="fill:#000000; fill-opacity:1.0; 
  stroke:#000000; stroke-linecap:round; stroke-linejoin:round; stroke-opacity:1.0; stroke-opacity:1.0; stroke-width:0" 
   transform="translate(0 0) scale(1 1)">
<ellipse cx="29500" cy="16500" rx="275" ry="275"  /> 
</g>
<g style="fill:#FFFFFF; fill-opacity:1.0; 
  stroke:#808000; stroke-linecap:round; stroke-linejoin:round; stroke-opacity:1.0; stroke-opacity:1.0; stroke-width:0" 
   transform="translate(0 0) scale(1 1)">
<ellipse cx="29500" cy="16500" rx="160" ry="160"  /> 
</g>
<g style="fill:#000000; fill-opacity:1.0; 
  stroke:#000000; stroke-linecap:round; stroke-linejoin:round; stroke-opacity:1.0; stroke-opacity:1.0; stroke-width:0" 
   transform="translate(0 0) scale(1 1)">
<ellipse cx="30000" cy="22500" rx="275" ry="275"  /> 
</g>
<g style="fill:#FFFFFF; fill-opacity:1.0; 
  stroke:#808000; stroke-linecap:round; stroke-linejoin:round; stroke-opacity:1.0; stroke-opacity:1.0; stroke-width:0" 
   transform="translate(0 0) scale(1 1)">
<ellipse cx="30000" cy="22500" rx="160" ry="160"  /> 
</g>
<g style="fill:#000000; fill-opacity:1.0; 
  stroke:#000000; stroke-linecap:round; stroke-linejoin:round; stroke-opacity:1.0; stroke-opacity:1.0; stroke-width:0" 
   transform="translate(0 0) scale(1 1)">
<ellipse cx="31000" cy="22500" rx="275" ry="275"  /> 
</g>
<g style="fill:#FFFFFF; fill-opacity:1.0; 
  stroke:#808000; stroke-linecap:round; stroke-linejoin:round; stroke-opacity:1.0; stroke-opacity:1.0; stroke-width:0" 
   transform="translate(0 0) scale(1 1)">
<ellipse cx="31000" cy="22500" rx="160" ry="160"  /> 
</g>
<g style="fill:#000000; fill-opacity:1.0; 
  stroke:#000000; stroke-linecap:round; stroke-linejoin:round; stroke-opacity:1.0; stroke-opacity:1.0; stroke-width:0" 
   transform="translate(0 0) scale(1 1)">
<polygon style="fill-rule:evenodd; " 
points="37500,19500
36500,19500
36500,18500
37500,18500
" /> 
</g>
<g style="fill:#FFFFFF; fill-opacity:1.0; 
  stroke:#808000; stroke-linecap:round; stroke-linejoin:round; stroke-opacity:1.0; stroke-opacity:1.0; stroke-width:0" 
   transform="translate(0 0) scale(1 1)">
<ellipse cx="37000" cy="19000" rx="300" ry="300"  /> 
</g>
<g style="fill:#000000; fill-opacity:1.0; 
  stroke:#000000; stroke-linecap:round; stroke-linejoin:round; stroke-opacity:1.0; stroke-opacity:1.0; stroke-width:0" 
   transform="translate(0 0) scale(1 1)">
<ellipse cx="37000" cy="17000" rx="500" ry="500"  /> 
</g>
<g style="fill:#FFFFFF; fill-opacity:1.0; 
  stroke:#808000; stroke-linecap:round; stroke-linejoin:round; stroke-opacity:1.0; stroke-opacity:1.0; stroke-width:0" 
   transform="translate(0 0) scale(1 1)">
<ellipse cx="37000" cy="17000" rx="300" ry="300"  /> 
</g>
<g style="fill:#000000; fill-opacity:1.0; 
  stroke:#000000; stroke-linecap:round; stroke-linejoin:round; stroke-opacity:1.0; stroke-opacity:1.0; stroke-width:0" 
   transform="translate(0 0) scale(1 1)">
<polygon style="fill-rule:evenodd; " 
points="30000,10000
30000,11000
29000,11000
29000,10000
" /> 
</g>
<g style="fill:#FFFFFF; fill-opacity:1.0; 
  stroke:#808000; stroke-linecap:round; stroke-linejoin:round; stroke-opacity:1.0; stroke-opacity:1.0; stroke-width:0" 
   transform="translate(0 0) scale(1 1)">
<ellipse cx="29500" cy="10500" rx="300" ry="300"  /> 
</g>
<g style="fill:#000000; fill-opacity:1.0; 
  stroke:#000000; stroke-linecap:round; stroke-linejoin:round; stroke-opacity:1.0; stroke-opacity:1.0; stroke-width:0" 
   transform="translate(0 0) scale(1 1)">
<ellipse cx="27500" cy="10500" rx="500" ry="500"  /> 
</g>
<g style="fill:#FFFFFF; fill-opacity:1.0; 
  stroke:#808000; stroke-linecap:round; stroke-linejoin:round; stroke-opacity:1.0; stroke-opacity:1.0; stroke-width:0" 
   transform="translate(0 0) scale(1 1)">
<ellipse cx="27500" cy="10500" rx="300" ry="300"  /> 
</g>
<g style="fill:#000000; fill-opacity:1.0; 
  stroke:#000000; stroke-linecap:round; stroke-linejoin:round; stroke-opacity:1.0; stroke-opacity:1.0; stroke-width:0" 
   transform="translate(0 0) scale(1 1)">
<polygon style="fill-rule:evenodd; " 
points="34500,10000
34500,11000
33500,11000
33500,10000
" /> 
</g>
<g style="fill:#FFFFFF; fill-opacity:1.0; 
  stroke:#808000; stroke-linecap:round; stroke-linejoin:round; stroke-opacity:1.0; stroke-opacity:1.0; stroke-width:0" 
   transform="translate(0 0) scale(1 1)">
<ellipse cx="34000" cy="10500" rx="300" ry="300"  /> 
</g>
<g style="fill:#000000; fill-opacity:1.0; 
  stroke:#000000; stroke-linecap:round; stroke-linejoin:round; stroke-opacity:1.0; stroke-opacity:1.0; stroke-width:0" 
   transform="translate(0 0) scale(1 1)">
<ellipse cx="32000" cy="10500" rx="500" ry="500"  /> 
</g>
<g style="fill:#FFFFFF; fill-opacity:1.0; 
  stroke:#808000; stroke-linecap:round; stroke-linejoin:round; stroke-opacity:1.0; stroke-opacity:1.0; stroke-width:0" 
   transform="translate(0 0) scale(1 1)">
<ellipse cx="32000" cy="10500" rx="300" ry="300"  /> 
</g>
<g style="fill:#000000; fill-opacity:1.0; 
  stroke:#000000; stroke-linecap:round; stroke-linejoin:round; stroke-opacity:1.0; stroke-opacity:1.0; stroke-width:0" 
   transform="translate(0 0) scale(1 1)">
<polygon style="fill-rule:evenodd; " 
points="32500,23000
32500,22000
33500,22000
33500,23000
" /> 
</g>
<g style="fill:#FFFFFF; fill-opacity:1.0; 
  stroke:#808000; stroke-linecap:round; stroke-linejoin:round; stroke-opacity:1.0; stroke-opacity:1.0; stroke-width:0" 
   transform="translate(0 0) scale(1 1)">
<ellipse cx="33000" cy="22500" rx="300" ry="300"  /> 
</g>
<g style="fill:#000000; fill-opacity:1.0; 
  stroke:#000000; stroke-linecap:round; stroke-linejoin:round; stroke-opacity:1.0; stroke-opacity:1.0; stroke-width:0" 
   transform="translate(0 0) scale(1 1)">
<ellipse cx="35000" cy="22500" rx="500" ry="500"  /> 
</g>
<g style="fill:#FFFFFF; fill-opacity:1.0; 
  stroke:#808000; stroke-linecap:round; stroke-linejoin:round; stroke-opacity:1.0; stroke-opacity:1.0; stroke-width:0" 
   transform="translate(0 0) scale(1 1)">
<ellipse cx="35000" cy="22500" rx="300" ry="300"  /> 
</g>
<g style="fill:#000000; fill-opacity:1.0; 
  stroke:#000000; stroke-linecap:round; stroke-linejoin:round; stroke-opacity:1.0; stroke-opacity:1.0; stroke-width:0" 
   transform="translate(0 0) scale(1 1)">
<ellipse cx="37000" cy="22500" rx="500" ry="500"  /> 
</g>
<g style="fill:#FFFFFF; fill-opacity:1.0; 
  stroke:#808000; stroke-linecap:round; stroke-linejoin:round; stroke-opacity:1.0; stroke-opacity:1.0; stroke-width:0" 
   transform="translate(0 0) scale(1 1)">
<ellipse cx="37000" cy="22500" rx="300" ry="300"  /> 
</g>
<g style="fill:#000000; fill-opacity:1.0; 
  stroke:#000000; stroke-linecap:round; stroke-linejoin:round; stroke-opacity:1.0; stroke-opacity:1.0; stroke-width:0" 
   transform="translate(0 0) scale(1 1)">
<polygon style="fill-rule:evenodd; " 
points="39000,10000
39000,11000
38000,11000
38000,10000
" /> 
</g>
<g style="fill:#FFFFFF; fill-opacity:1.0; 
  stroke:#808000; stroke-linecap:round; stroke-linejoin:round; stroke-opacity:1.0; stroke-opacity:1.0; stroke-width:0" 
   transform="translate(0 0) scale(1 1)">
<ellipse cx="38500" cy="10500" rx="300" ry="300"  /> 
</g>
<g style="fill:#000000; fill-opacity:1.0; 
  stroke:#000000; stroke-linecap:round; stroke-linejoin:round; stroke-opacity:1.0; stroke-opacity:1.0; stroke-width:0" 
   transform="translate(0 0) scale(1 1)">
<ellipse cx="36500" cy="10500" rx="500" ry="500"  /> 
</g>
<g style="fill:#FFFFFF; fill-opacity:1.0; 
  stroke:#808000; stroke-linecap:round; stroke-linejoin:round; stroke-opacity:1.0; stroke-opacity:1.0; stroke-width:0" 
   transform="translate(0 0) scale(1 1)">
<ellipse cx="36500" cy="10500" rx="300" ry="300"  /> 
</g>
<g style="fill:#000000; fill-opacity:1.0; 
  stroke:#000000; stroke-linecap:round; stroke-linejoin:round; stroke-opacity:1.0; stroke-opacity:1.0; stroke-width:0" 
   transform="translate(0 0) scale(1 1)">
<polygon style="fill-rule:evenodd; " 
points="30225,19275
30225,18725
30775,18725
30775,19275
" /> 
</g>
<g style="fill:#FFFFFF; fill-opacity:1.0; 
  stroke:#808000; stroke-linecap:round; stroke-linejoin:round; stroke-opacity:1.0; stroke-opacity:1.0; stroke-width:0" 
   transform="translate(0 0) scale(1 1)">
<ellipse cx="30500" cy="19000" rx="160" ry="160"  /> 
</g>
<g style="fill:#000000; fill-opacity:1.0; 
  stroke:#000000; stroke-linecap:round; stroke-linejoin:round; stroke-opacity:1.0; stroke-opacity:1.0; stroke-width:0" 
   transform="translate(0 0) scale(1 1)">
<ellipse cx="29500" cy="19000" rx="275" ry="275"  /> 
</g>
<g style="fill:#FFFFFF; fill-opacity:1.0; 
  stroke:#808000; stroke-linecap:round; stroke-linejoin:round; stroke-opacity:1.0; stroke-opacity:1.0; stroke-width:0" 
   transform="translate(0 0) scale(1 1)">
<ellipse cx="29500" cy="19000" rx="160" ry="160"  /> 
</g>
<g style="fill:#000000; fill-opacity:1.0; 
  stroke:#000000; stroke-linecap:round; stroke-linejoin:round; stroke-opacity:1.0; stroke-opacity:1.0; stroke-width:0" 
   transform="translate(0 0) scale(1 1)">
<ellipse cx="29500" cy="20000" rx="275" ry="275"  /> 
</g>
<g style="fill:#FFFFFF; fill-opacity:1.0; 
  stroke:#808000; stroke-linecap:round; stroke-linejoin:round; stroke-opacity:1.0; stroke-opacity:1.0; stroke-width:0" 
   transform="translate(0 0) scale(1 1)">
<ellipse cx="29500" cy="20000" rx="160" ry="160"  /> 
</g> 
</svg> 
